%YAML 1.1
%TAG !u! tag:unity3d.com,2011:
--- !u!78 &1
TagManager:
  serializedVersion: 2
  tags:
  - Platform
  - Hold
  - Wall
  - Hostile
  - PlayerAttack
  - Moving Platform
  - Enemy
  - HangPoint
  - Attack
  - Boss
  layers:
  - Default
  - TransparentFX
  - Ignore Raycast
  - 
  - Water
  - UI
  - 
  - 
  - Player
  - Ground
  - Enemy
  - Sword
  - Ragdoll
  - Bullet
  - Rock
  - Shield
  - Tool
  - HangPoint
  - 
  - 
  - 
  - 
  - 
  - 
  - 
  - 
  - 
  - 
  - 
  - 
  - 
  - 
  m_SortingLayers:
  - name: Background
    uniqueID: 3692126871
    locked: 0
  - name: Window
    uniqueID: 2923467415
    locked: 0
  - name: Pillar
    uniqueID: 2568834083
    locked: 0
  - name: PillarLight
    uniqueID: 2495272887
    locked: 0
  - name: Default
    uniqueID: 0
    locked: 0
  - name: Shader
    uniqueID: 848111835
    locked: 0
  - name: Enemy
    uniqueID: 3605154575
    locked: 0
  - name: Player
    uniqueID: 2752968233
    locked: 0
  - name: Bullet
    uniqueID: 1544555529
    locked: 0
