%YAML 1.1
%TAG !u! tag:unity3d.com,2011:
--- !u!114 &11400000
MonoBehaviour:
  m_ObjectHideFlags: 0
  m_PrefabParentObject: {fileID: 0}
  m_PrefabInternal: {fileID: 0}
  m_GameObject: {fileID: 0}
  m_Enabled: 1
  m_EditorHideFlags: 0
  m_Script: {fileID: 11500000, guid: f1b3b4b945939a54ea0b23d3396115fb, type: 3}
  m_Name: Aria_Front_SkeletonData
  m_EditorClassIdentifier: 
  atlasAssets:
  - {fileID: 11400000, guid: 3c542122bab66ee4c92399ceb493b30a, type: 2}
  scale: 0.01
  skeletonJSON: {fileID: 4900000, guid: 1a06e87c6dce76d449c1ae7468ed525e, type: 3}
  fromAnimation: []
  toAnimation: []
  duration: []
  defaultMix: 0.1
  controller: {fileID: 0}
